Resistance screening analysis
…
overrall, checks are having a susceptible reaction OHR1 and OH28 resistant check was included and had the expected reaction

# all lines are susceptible to OH25 (1a, 1b, 1c, 1k)
(assign.rps <- reaction.results %>% 
  filter(!line %in% gh.controls) %>% 
  mutate(Rps = case_when(
    OH1 == "S" ~ "rps",
    OH1 == "R" & OH4 == "S" & (OH3 == "R" | OH7 == "R") ~ "Rps1c", 
    OH1 == "R" & OH3 == "R" & OH4 == "R" & OH7 == "R" ~ "Rps1k", 
    OH1 == "R" & (OH3 == "S" | OH4 == "S" | OH7 == "S") ~ "Rps1a")
    ))

# A tibble: 30 x 8
   line        OH1   OH3   OH4   OH7   OH25  OH28  Rps  
   <fct>       <chr> <chr> <chr> <chr> <chr> <chr> <chr>
 1 LD02-4485   R     I     S     I     S     I     Rps1a
 2 LD07-3395bf I     S     S     S     S     S     <NA> 
 3 LD08-12435a I     S     S     S     S     S     <NA> 
 4 LD08-12441a I     I     S     S     S     S     <NA> 
 5 LD09-10911  I     I     S     S     S     S     <NA> 
 6 LD09-30224  I     I     I     S     S     S     <NA> 
 7 LD10-10198  I     I     S     S     S     S     <NA> 
 8 LD10-10219  I     S     I     S     S     S     <NA> 
 9 LD10-5213a  I     I     S     S     S     S     <NA> 
10 LD10-9168   S     I     S     S     S     S     rps  
# ... with 20 more rows
…
rps1a <- c("LD09-30224", "LD11-2170", "LD12-15246R2a")
rps1c <- c("LD13-13334R1a", "LD12-15129R1a")
rps1k <- c("LD11-13802R2", "LD11-7311")

(rps.gh <- reaction.results %>% 
  filter(!line %in% gh.controls) %>% 
  mutate(Rps = case_when(
    OH1 == "R" & OH4 == "S" & (OH3 == "R" | OH7 == "R") | line %in% rps1c ~ "Rps1c", 
    OH1 == "R" & (OH3 == "S" | OH4 == "S" | OH7 == "S") | line %in% rps1a ~ "Rps1a", 
    OH1 == "S" | OH1 == "I" ~ "rps" ,
    line %in% rps1k ~ "Rps1k"))
)

# A tibble: 30 x 8
   line        OH1   OH3   OH4   OH7   OH25  OH28  Rps  
   <fct>       <chr> <chr> <chr> <chr> <chr> <chr> <chr>
 1 LD02-4485   R     I     S     I     S     I     Rps1a
 2 LD07-3395bf I     S     S     S     S     S     rps  
 3 LD08-12435a I     S     S     S     S     S     rps  
 4 LD08-12441a I     I     S     S     S     S     rps  
 5 LD09-10911  I     I     S     S     S     S     rps  
 6 LD09-30224  I     I     I     S     S     S     Rps1a
 7 LD10-10198  I     I     S     S     S     S     rps  
 8 LD10-10219  I     S     I     S     S     S     rps  
 9 LD10-5213a  I     I     S     S     S     S     rps  
10 LD10-9168   S     I     S     S     S     S     rps  
# ... with 20 more rows
…
Lets compare results from both trials and assign final Rps

rps.gh <- rps.gh %>% 
  dplyr::select(line, Rps) %>% 
  filter(!line %in% gh.controls)

rps.inc <- rps.inc %>% 
  dplyr::select(line, Rps) %>% 
  filter(!line %in% inc.controls)

(rps.final <- bind_cols(rps.gh, rps.inc))

# A tibble: 30 x 4
   line        Rps   line1       Rps1 
   <fct>       <chr> <fct>       <chr>
 1 LD02-4485   Rps1a LD02-4485   rps  
 2 LD07-3395bf rps   LD07-3395bf rps  
 3 LD08-12435a rps   LD08-12435a rps  
 4 LD08-12441a rps   LD08-12441a rps  
 5 LD09-10911  rps   LD09-10911  rps  
 6 LD09-30224  Rps1a LD09-30224  rps  
 7 LD10-10198  rps   LD10-10198  rps  
 8 LD10-10219  rps   LD10-10219  rps  
 9 LD10-5213a  rps   LD10-5213a  rps  
10 LD10-9168   rps   LD10-9168   rps  
# ... with 20 more rows
…
